%YAML 1.1
%TAG !u! tag:unity3d.com,2011:
--- !u!114 &11400000
MonoBehaviour:
  m_ObjectHideFlags: 0
  m_CorrespondingSourceObject: {fileID: 0}
  m_PrefabInstance: {fileID: 0}
  m_PrefabAsset: {fileID: 0}
  m_GameObject: {fileID: 0}
  m_Enabled: 0
  m_EditorHideFlags: 0
  m_Script: {fileID: 11500000, guid: c4d8b838093ec7b4cb46755671eb3c64, type: 3}
  m_Name: FriendSpawner
  m_EditorClassIdentifier: 
  _prefab: {fileID: 5748298772794771778, guid: 1692c31e8baeede4dab6be767566b172, type: 3}
  _minHealth:
    useConstant: 1
    constantValue: 4
    variable: {fileID: 0}
  _maxHealth:
    useConstant: 1
    constantValue: 4
    variable: {fileID: 0}
  _minScale: 0.5
  _maxScale: 1
  _spawnChance:
    useConstant: 1
    constantValue: 0.3
    variable: {fileID: 0}
